<?xml version="1.0" encoding="UTF-8" standalone="no"?>
<!-- Created with Inkscape (http://www.inkscape.org/) -->

<svg
   width="160mm"
   height="50mm"
   viewBox="0 0 160 50"
   version="1.1"
   id="svg922"
   inkscape:version="1.1.1 (3bf5ae0d25, 2021-09-20)"
   sodipodi:docname="signalyzer.svg"
   inkscape:export-filename="D:\Workspace\Drawings\banner.png"
   inkscape:export-xdpi="101.6"
   inkscape:export-ydpi="101.6"
   xmlns:inkscape="http://www.inkscape.org/namespaces/inkscape"
   xmlns:sodipodi="http://sodipodi.sourceforge.net/DTD/sodipodi-0.dtd"
   xmlns="http://www.w3.org/2000/svg"
   xmlns:svg="http://www.w3.org/2000/svg"
   xmlns:rdf="http://www.w3.org/1999/02/22-rdf-syntax-ns#"
   xmlns:cc="http://creativecommons.org/ns#"
   xmlns:dc="http://purl.org/dc/elements/1.1/">
  <title
     id="title901">Signalyzer Banner</title>
  <sodipodi:namedview
     id="namedview924"
     pagecolor="#ffffff"
     bordercolor="#999999"
     borderopacity="1"
     inkscape:pageshadow="0"
     inkscape:pageopacity="0"
     inkscape:pagecheckerboard="0"
     inkscape:document-units="mm"
     showgrid="true"
     showguides="true"
     inkscape:guide-bbox="true"
     inkscape:zoom="2.8284271"
     inkscape:cx="262.86695"
     inkscape:cy="18.208"
     inkscape:window-width="2560"
     inkscape:window-height="1361"
     inkscape:window-x="-9"
     inkscape:window-y="-9"
     inkscape:window-maximized="1"
     inkscape:current-layer="layer2-6"
     inkscape:lockguides="false"
     inkscape:object-paths="true"
     inkscape:snap-intersection-paths="true"
     inkscape:snap-smooth-nodes="true"
     inkscape:snap-midpoints="true"
     inkscape:snap-object-midpoints="true"
     inkscape:snap-center="true"
     inkscape:snap-bbox="true"
     inkscape:bbox-paths="true"
     inkscape:bbox-nodes="true"
     inkscape:snap-bbox-edge-midpoints="true"
     inkscape:snap-bbox-midpoints="false"
     inkscape:snap-grids="true"
     inkscape:snap-global="true"
     inkscape:snap-nodes="true"
     inkscape:snap-others="true"
     inkscape:snap-to-guides="true"
     inkscape:snap-page="true" />
  <defs
     id="defs919">
    <marker
       style="overflow:visible"
       id="Arrow1Lend"
       refX="0"
       refY="0"
       orient="auto"
       inkscape:stockid="Arrow1Lend"
       inkscape:isstock="true">
      <path
         transform="matrix(-0.8,0,0,-0.8,-10,0)"
         style="fill:context-stroke;fill-rule:evenodd;stroke:context-stroke;stroke-width:1pt"
         d="M 0,0 5,-5 -12.5,0 5,5 Z"
         id="path866" />
    </marker>
    <marker
       style="overflow:visible"
       id="Arrow2Lend"
       refX="0"
       refY="0"
       orient="auto"
       inkscape:stockid="Arrow2Lend"
       inkscape:isstock="true">
      <path
         transform="matrix(-1.1,0,0,-1.1,-1.1,0)"
         d="M 8.7185878,4.0337352 -2.2072895,0.01601326 8.7185884,-4.0017078 c -1.7454984,2.3720609 -1.7354408,5.6174519 -6e-7,8.035443 z"
         style="fill:context-stroke;fill-rule:evenodd;stroke:context-stroke;stroke-width:0.625;stroke-linejoin:round"
         id="path884" />
    </marker>
    <marker
       style="overflow:visible"
       id="Arrow1Lend-6"
       refX="0"
       refY="0"
       orient="auto"
       inkscape:stockid="Arrow1Lend"
       inkscape:isstock="true">
      <path
         transform="matrix(-0.8,0,0,-0.8,-10,0)"
         style="fill:context-stroke;fill-rule:evenodd;stroke:context-stroke;stroke-width:1pt"
         d="M 0,0 5,-5 -12.5,0 5,5 Z"
         id="path8094" />
    </marker>
    <marker
       style="overflow:visible"
       id="marker1133"
       refX="0"
       refY="0"
       orient="auto"
       inkscape:stockid="Arrow1Lend"
       inkscape:isstock="true">
      <path
         transform="matrix(-0.8,0,0,-0.8,-10,0)"
         style="fill:context-stroke;fill-rule:evenodd;stroke:context-stroke;stroke-width:1pt"
         d="M 0,0 5,-5 -12.5,0 5,5 Z"
         id="path1131" />
    </marker>
  </defs>
  <g
     id="layer2-6"
     inkscape:label="Lower"
     style="display:inline"
     transform="translate(1.8930245,-8.575859)"
     inkscape:groupmode="layer"
     sodipodi:insensitive="true">
    <path
       style="display:inline;opacity:0.3;fill:#abdee5;stroke:#000000;stroke-width:0;stroke-linecap:butt;stroke-linejoin:miter;stroke-miterlimit:4;stroke-dasharray:none;stroke-opacity:1"
       d="m 25.020123,34.07586 c 0,0 -0.756079,20.202517 3.57058,22.700514 0.584872,0.337675 1.158519,0.291728 1.713289,-0.0403 l 1.732051,-0.999999 c -0.55477,0.332025 -1.128417,0.377972 -1.713289,0.0403 -4.326659,-2.497997 -3.57058,-22.700515 -3.57058,-22.700515"
       id="path43450-1"
       inkscape:label="Band 3"
       sodipodi:nodetypes="csccsc"
       sodipodi:insensitive="true" />
    <path
       style="display:inline;fill:none;stroke:#000000;stroke-width:0.1;stroke-linecap:butt;stroke-linejoin:miter;stroke-miterlimit:4;stroke-dasharray:none;stroke-opacity:1"
       d="m 26.752174,33.07586 c 0,0 -0.756079,20.202517 3.57058,22.700514 0.584872,0.337675 1.15852,0.291728 1.713289,-0.0403 l -1.732051,1 c -0.55477,0.332024 -1.128416,0.377971 -1.713289,0.0403 C 24.264045,54.278377 25.020124,34.07586 25.020124,34.07586"
       id="path52437-5"
       inkscape:label="Line 3"
       sodipodi:nodetypes="csccsc"
       sodipodi:insensitive="true" />
    <path
       style="display:inline;fill:none;stroke:#000000;stroke-width:0.1;stroke-linecap:butt;stroke-linejoin:miter;stroke-miterlimit:4;stroke-dasharray:none;stroke-opacity:1"
       d="m 36.622663,40.77459 c 0,0 -2.769463,13.837318 -6.318671,15.961488 l 1.731989,-0.999964 c 3.549208,-2.124169 6.318671,-15.961487 6.318671,-15.961487"
       id="path2477-7"
       inkscape:label="Line 4"
       sodipodi:nodetypes="cccc"
       sodipodi:insensitive="true" />
    <path
       style="display:inline;opacity:0.3;fill:#abdee5;stroke:#000000;stroke-width:0;stroke-linecap:butt;stroke-linejoin:miter;stroke-miterlimit:4;stroke-dasharray:none;stroke-opacity:1"
       d="m 36.622663,40.77459 c 0,0 -2.769463,13.837318 -6.318671,15.961488 l 1.731989,-0.999964 c 3.549208,-2.124169 6.318671,-15.961487 6.318671,-15.961487 z"
       id="path4461-7"
       inkscape:label="Band 4"
       sodipodi:nodetypes="ccccc"
       sodipodi:insensitive="true" />
  </g>
  <g
     inkscape:label="Plane"
     inkscape:groupmode="layer"
     id="layer1"
     style="display:inline"
     sodipodi:insensitive="true">
    <rect
       style="opacity:0.3;fill:#ac560e;stroke:#000000;stroke-width:0;stroke-linecap:round;stroke-linejoin:bevel;stroke-miterlimit:4;stroke-dasharray:none"
       id="rect2001"
       width="13.397459"
       height="15.470054"
       x="27.640863"
       y="8.961688"
       inkscape:label="Quadrant 1"
       transform="matrix(0.8660254,0.5,-0.8660254,0.5,0,0)"
       sodipodi:insensitive="true" />
    <rect
       style="opacity:0.3;fill:#ffc107;stroke:#000000;stroke-width:0;stroke-linecap:round;stroke-linejoin:bevel;stroke-miterlimit:4;stroke-dasharray:none"
       id="rect1303"
       width="13.397459"
       height="15.470054"
       x="27.640863"
       y="-6.5083656"
       inkscape:label="Quadrant 2"
       transform="matrix(0.8660254,0.5,-0.8660254,0.5,0,0)"
       sodipodi:insensitive="true" />
    <rect
       style="opacity:0.3;fill:#13889b;stroke:#000000;stroke-width:0;stroke-linecap:round;stroke-linejoin:bevel;stroke-miterlimit:4;stroke-dasharray:none"
       id="rect2003"
       width="13.397459"
       height="15.470054"
       x="41.038319"
       y="-6.5083656"
       inkscape:label="Quadrant 3"
       transform="matrix(0.8660254,0.5,-0.8660254,0.5,0,0)"
       sodipodi:insensitive="true" />
    <rect
       style="opacity:0.3;fill:#20c997;stroke:#000000;stroke-width:0;stroke-linecap:round;stroke-linejoin:bevel;stroke-miterlimit:4;stroke-dasharray:none"
       id="rect2005"
       width="13.397459"
       height="15.470054"
       x="41.038319"
       y="8.961688"
       inkscape:label="Quadrant 4"
       transform="matrix(0.8660254,0.5,-0.8660254,0.5,0,0)"
       sodipodi:insensitive="true" />
    <rect
       style="opacity:1;fill:none;fill-opacity:1;stroke:#000000;stroke-width:0.322371;stroke-linecap:round;stroke-linejoin:miter;stroke-miterlimit:4;stroke-dasharray:none"
       id="rect4937"
       width="26.794918"
       height="30.940107"
       x="27.640863"
       y="-6.5083656"
       inkscape:label="Frame"
       transform="matrix(0.8660254,0.5,-0.8660254,0.5,0,0)"
       sodipodi:insensitive="true" />
    <path
       style="fill:none;stroke:#000000;stroke-width:0.0535899;stroke-linecap:butt;stroke-linejoin:miter;stroke-miterlimit:4;stroke-dasharray:0.428719, 0.428719;stroke-dashoffset:0;stroke-opacity:1"
       d="M 16.176634,18.301272 39.381715,31.69873"
       id="path5264"
       inkscape:label="X-Axis"
       sodipodi:insensitive="true" />
    <path
       style="fill:none;stroke:#000000;stroke-width:0.0535899;stroke-linecap:butt;stroke-linejoin:miter;stroke-miterlimit:4;stroke-dasharray:0.428719, 0.428719;stroke-dashoffset:0;stroke-opacity:1"
       d="M 41.176634,17.264975 14.381713,32.735027"
       id="path5596"
       inkscape:label="Y-Axis"
       sodipodi:insensitive="true" />
  </g>
  <g
     inkscape:groupmode="layer"
     id="layer3"
     inkscape:label="Polar"
     sodipodi:insensitive="true">
    <path
       id="path9703"
       style="display:inline;opacity:0.7;fill:#abdee5;stroke:#000000;stroke-width:0.1006;stroke-linecap:round;stroke-linejoin:round;stroke-miterlimit:0;stroke-dasharray:none"
       d="m 15.197509,32.256402 0.02026,-0.01172 0.126383,-1.004563 0.126111,-1.004411 1.739695,-0.0728 1.739692,-0.0728 0.02026,-0.01172 c -4.2101,-2.430799 -3.681993,-6.676664 1.179557,-9.483418 4.861468,-2.806689 12.215323,-3.111521 16.425499,-0.680869 l 3.510155,-0.163382 0.262528,-2.014774 C 34.333085,14.263433 23.827253,14.69892 16.882233,18.708636 9.9372022,22.718345 9.1829162,28.783892 15.197492,32.2564 Z"
       sodipodi:nodetypes="ccccccccccccc"
       inkscape:label="Donut 1-2"
       sodipodi:insensitive="true" />
    <path
       id="path236387"
       style="display:inline;fill:none;stroke:#000000;stroke-width:0.0503002;stroke-linecap:round;stroke-miterlimit:4;stroke-dasharray:none;marker-end:url(#Arrow1Lend-6)"
       d="m 14.424828,29.029082 c -2.1449,-3.03388 -0.564346,-6.815317 3.982076,-9.440196 4.546422,-2.624875 11.087808,-3.532643 16.342642,-2.294287"
       sodipodi:nodetypes="csc"
       inkscape:label="Rotating Arrow 1-2"
       sodipodi:insensitive="true" />
    <path
       id="path8263-6-4"
       style="display:inline;opacity:0.7;fill:#abdee5;stroke:#000000;stroke-width:0.100426;stroke-linecap:round;stroke-linejoin:bevel;stroke-miterlimit:0;stroke-dasharray:none"
       d="m 40.3855,17.757698 -0.02026,0.01172 -0.129168,1.002957 -0.128912,1.002805 -1.736909,0.07443 -1.736909,0.07442 -0.02026,0.01172 c 4.195527,2.422382 3.655583,6.661443 -1.206,9.468219 -4.861503,2.806707 -12.203574,3.118374 -16.399177,0.696136 l -3.50458,0.166621 -0.268126,2.01156 c 5.993745,3.460492 16.482737,3.015245 23.427812,-0.994501 6.945078,-4.009738 7.716277,-10.065563 1.722517,-13.526053 z"
       sodipodi:nodetypes="ccccccccccccc"
       inkscape:label="Donut 3-4"
       sodipodi:insensitive="true" />
    <path
       id="path234936"
       style="display:inline;fill:none;stroke:#000000;stroke-width:0.0503002;stroke-linecap:round;stroke-miterlimit:4;stroke-dasharray:none;marker-end:url(#Arrow1Lend-6)"
       d="m 41.029293,20.915447 c 2.144897,3.03388 0.546497,6.800242 -3.999929,9.42512 -4.546424,2.62488 -11.069954,3.547719 -16.324792,2.309362"
       sodipodi:nodetypes="csc"
       inkscape:label="Rotating Arrow 3-4"
       sodipodi:insensitive="true" />
  </g>
  <g
     id="layer2"
     inkscape:label="Upper"
     style="display:inline"
     transform="translate(2.7791751)"
     sodipodi:insensitive="true">
    <path
       style="display:inline;opacity:0.3;fill:#abdee5;stroke:#000000;stroke-width:0;stroke-linecap:butt;stroke-linejoin:miter;stroke-miterlimit:4;stroke-dasharray:none;stroke-opacity:1"
       d="m 14.263487,17.801271 c 0,0 2.769463,-13.8373177 6.318671,-15.9614867 l -1.731989,0.999963 c -3.549208,2.12417 -6.318671,15.9614867 -6.318671,15.9614867 z"
       id="path4461"
       inkscape:label="Band 1"
       sodipodi:nodetypes="ccccc"
       sodipodi:insensitive="true" />
    <path
       style="display:inline;fill:none;stroke:#000000;stroke-width:0.1;stroke-linecap:butt;stroke-linejoin:miter;stroke-miterlimit:4;stroke-dasharray:none;stroke-opacity:1"
       d="m 14.263487,17.801271 c 0,0 2.769463,-13.8373177 6.318671,-15.9614867 l -1.731989,0.999963 c -3.549208,2.12417 -6.318671,15.9614867 -6.318671,15.9614867"
       id="path2477"
       inkscape:label="Line 1"
       sodipodi:nodetypes="cccc"
       sodipodi:insensitive="true" />
    <path
       style="display:inline;opacity:0.3;fill:#abdee5;stroke:#000000;stroke-width:0;stroke-linecap:butt;stroke-linejoin:miter;stroke-miterlimit:4;stroke-dasharray:none;stroke-opacity:1"
       d="m 25.866027,24.500001 c 0,0 0.756079,-20.2025157 -3.57058,-22.7005127 -0.584872,-0.337676 -1.158519,-0.291729 -1.713289,0.0403 l -1.732051,0.999999 c 0.55477,-0.332025 1.128417,-0.377972 1.713289,-0.0403 4.326659,2.497997 3.57058,22.7005137 3.57058,22.7005137"
       id="path43450"
       inkscape:label="Band 2"
       sodipodi:nodetypes="csccsc"
       sodipodi:insensitive="true" />
    <path
       style="display:inline;fill:none;stroke:#000000;stroke-width:0.1;stroke-linecap:square;stroke-linejoin:miter;stroke-miterlimit:4;stroke-dasharray:none;stroke-opacity:1"
       d="m 24.133976,25.500001 c 0,0 0.756079,-20.2025157 -3.57058,-22.7005127 -0.584872,-0.337676 -1.158519,-0.291729 -1.713289,0.0403 l 1.732051,-1 c 0.55477,-0.332025 1.128417,-0.377972 1.713289,-0.0403 4.326659,2.497997 3.57058,22.7005127 3.57058,22.7005127"
       id="path52437"
       inkscape:label="Line 2"
       sodipodi:nodetypes="csccsc"
       sodipodi:insensitive="true" />
    <path
       id="path9359"
       style="display:inline;opacity:0.3;fill:#abdee5;fill-opacity:1;stroke:#000000;stroke-width:0;stroke-linecap:round;stroke-linejoin:round;stroke-miterlimit:4;stroke-dasharray:none"
       inkscape:label="Arrow"
       inkscape:transform-center-y="-0.0098532213"
       d="m 35.738415,32.192284 -0.432461,0.248803 0.648689,-1.522375 0.648688,-1.522376 0.648684,0.775968 0.648687,0.775967 -0.43218,0.248645"
       sodipodi:nodetypes="ccccccc"
       sodipodi:insensitive="true" />
    <path
       id="path7523"
       style="display:inline;opacity:1;fill:none;stroke:#000000;stroke-width:0.1;stroke-linecap:round;stroke-linejoin:round;stroke-miterlimit:4;stroke-dasharray:none"
       inkscape:label="Arrow"
       inkscape:transform-center-y="-0.0098532213"
       d="m 35.738415,32.192284 -0.432461,0.248803 0.648689,-1.522375 0.648688,-1.522376 0.648684,0.775968 0.648687,0.775967 -0.43218,0.248645"
       sodipodi:nodetypes="ccccccc"
       sodipodi:insensitive="true" />
    <path
       style="display:inline;fill:none;stroke:#000000;stroke-width:0.1;stroke-linecap:butt;stroke-linejoin:miter;stroke-miterlimit:4;stroke-dasharray:0.05, 0.05;stroke-dashoffset:0;stroke-opacity:1;marker-end:url(#Arrow1Lend)"
       d="m 13.390356,18.297046 c 0,0 2.776567,-13.8332157 6.325775,-15.9573847 0.55477,-0.332025 1.128417,-0.377972 1.713289,-0.0403 C 25.756079,4.7973623 25,24.999878 25,24.999878 m 0,0 c 0,0 -0.756079,20.202515 3.570581,22.700512 4.326659,2.497999 8.039064,-15.997679 8.039064,-15.997679"
       id="path34029"
       inkscape:label="Curve"
       sodipodi:nodetypes="cssccsc"
       sodipodi:insensitive="true" />
  </g>
  <metadata
     id="metadata899">
    <rdf:RDF>
      <cc:Work
         rdf:about="">
        <dc:title>Signalyzer Banner</dc:title>
        <dc:date>2022-01-07</dc:date>
        <dc:creator>
          <cc:Agent>
            <dc:title>Jochen Gerhaeusser</dc:title>
          </cc:Agent>
        </dc:creator>
        <cc:license
           rdf:resource="http://creativecommons.org/licenses/by-nc-sa/4.0/" />
        <dc:description>Signalyzer Banner</dc:description>
        <dc:rights>
          <cc:Agent>
            <dc:title>All Rights reserved.</dc:title>
          </cc:Agent>
        </dc:rights>
      </cc:Work>
      <cc:License
         rdf:about="http://creativecommons.org/licenses/by-nc-sa/4.0/">
        <cc:permits
           rdf:resource="http://creativecommons.org/ns#Reproduction" />
        <cc:permits
           rdf:resource="http://creativecommons.org/ns#Distribution" />
        <cc:requires
           rdf:resource="http://creativecommons.org/ns#Notice" />
        <cc:requires
           rdf:resource="http://creativecommons.org/ns#Attribution" />
        <cc:prohibits
           rdf:resource="http://creativecommons.org/ns#CommercialUse" />
        <cc:permits
           rdf:resource="http://creativecommons.org/ns#DerivativeWorks" />
        <cc:requires
           rdf:resource="http://creativecommons.org/ns#ShareAlike" />
      </cc:License>
    </rdf:RDF>
  </metadata>
  <g
     inkscape:groupmode="layer"
     id="layer4"
     inkscape:label="Text"
     style="display:none"
     sodipodi:insensitive="true">
    <text
       xml:space="preserve"
       style="font-style:normal;font-variant:normal;font-weight:bold;font-stretch:normal;font-size:4.93889px;line-height:1.25;font-family:sans-serif;-inkscape-font-specification:'sans-serif Bold';text-align:center;text-anchor:middle;fill:#073984;stroke-width:0.264583"
       x="15.274352"
       y="46.957584"
       id="text8976"
       inkscape:label="Analyzer"
       sodipodi:insensitive="true"><tspan
         sodipodi:role="line"
         style="font-style:normal;font-variant:normal;font-weight:bold;font-stretch:normal;font-size:4.93889px;font-family:sans-serif;-inkscape-font-specification:'sans-serif Bold';text-align:center;text-anchor:middle;fill:#073984;stroke-width:0.264583"
         x="15.274352"
         y="46.957584"
         id="tspan11256">Analyzer</tspan></text>
    <text
       xml:space="preserve"
       style="font-size:4.93889px;line-height:1.25;font-family:sans-serif;-inkscape-font-specification:'sans-serif, Normal';fill:#073984;stroke-width:0.264583"
       x="40.309311"
       y="5.7289062"
       id="text2847"
       inkscape:label="Signal"
       sodipodi:insensitive="true"><tspan
         sodipodi:role="line"
         id="tspan2845"
         style="font-style:normal;font-variant:normal;font-weight:bold;font-stretch:normal;font-size:4.93889px;font-family:sans-serif;-inkscape-font-specification:'sans-serif Bold';text-align:center;text-anchor:middle;fill:#073984;stroke-width:0.264583"
         x="40.309311"
         y="5.7289062">Signal</tspan></text>
  </g>
  <g
     id="layer5"
     inkscape:label="Banner"
     style="display:inline"
     inkscape:groupmode="layer"
     sodipodi:insensitive="true">
    <text
       xml:space="preserve"
       style="font-size:16.9333px;line-height:1.25;font-family:sans-serif;-inkscape-font-specification:'sans-serif, Normal';fill:#073984;stroke-width:0.264583"
       x="106.48174"
       y="29.08725"
       id="text2847-8"
       inkscape:label="Signalyzer"
       sodipodi:insensitive="true"><tspan
         sodipodi:role="line"
         id="tspan2845-5"
         style="font-style:normal;font-variant:normal;font-weight:bold;font-stretch:normal;font-size:16.9333px;font-family:sans-serif;-inkscape-font-specification:'sans-serif Bold';text-align:center;text-anchor:middle;fill:#073984;stroke-width:0.264583"
         x="106.48174"
         y="29.08725">Signalyzer</tspan></text>
  </g>
</svg>
